"I","p","NodeMapL2G","nodeMaterialTypes","CellMapL2G","elementMaterialTypes","vtkValidPointMask","arc_length","Points:0","Points:1","Points:2"
-1.8808e-36,1.6602e-05,0,0,0,0,1,0,3.1416,0,0
-8.7106e-06,3.9614e-05,0,0,0,0,1,0.08,3.1416,0.08,0
-2.6821e-05,8.2048e-05,0,0,0,0,1,0.16,3.1416,0.16,0
-6.2791e-05,0.00016076,0,0,0,0,1,0.24,3.1416,0.24,0
-0.00012865,0.00029053,0,0,0,0,1,0.32,3.1416,0.32,0
-0.00024355,0.00053125,0,0,0,0,1,0.4,3.1416,0.4,0
-0.00044507,0.0009362,0,0,0,0,1,0.48,3.1416,0.48,0
-0.00077525,0.0015633,0,0,0,0,1,0.56,3.1416,0.56,0
-0.0013086,0.0026507,0,0,0,0,1,0.64,3.1416,0.64,0
-0.0021406,0.0043284,0,0,0,0,1,0.72,3.1416,0.72,0
-0.0034127,0.0069061,0,0,0,0,1,0.8,3.1416,0.8,0
-0.0052851,0.010697,0,0,0,0,1,0.88,3.1416,0.88,0
-0.0079366,0.016306,0,0,0,0,1,0.96,3.1416,0.96,0
-0.011667,0.024199,0,0,0,0,1,1.04,3.1416,1.04,0
-0.01662,0.034907,0,0,0,0,1,1.12,3.1416,1.12,0
-0.023037,0.049486,0,0,0,0,1,1.2,3.1416,1.2,0
-0.031017,0.06812,0,0,0,0,1,1.28,3.1416,1.28,0
-0.040538,0.091291,0,0,0,0,1,1.36,3.1416,1.36,0
-0.051418,0.11964,0,0,0,0,1,1.44,3.1416,1.44,0
-0.063195,0.15251,0,0,0,0,1,1.52,3.1416,1.52,0
-0.075155,0.18918,0,0,0,0,1,1.6,3.1416,1.6,0
-0.08643,0.22904,0,0,0,0,1,1.68,3.1416,1.68,0
-0.095985,0.27013,0,0,0,0,1,1.76,3.1416,1.76,0
-0.10253,0.31057,0,0,0,0,1,1.84,3.1416,1.84,0
-0.10505,0.34815,0,0,0,0,1,1.92,3.1416,1.92,0
-0.10264,0.38143,0,0,0,0,1,2,3.1416,2,0
-0.094796,0.40847,0,0,0,0,1,2.08,3.1416,2.08,0
-0.080833,0.42739,0,0,0,0,1,2.16,3.1416,2.16,0
-0.061283,0.43805,0,0,0,0,1,2.24,3.1416,2.24,0
-0.036503,0.4402,0,0,0,0,1,2.32,3.1416,2.32,0
-0.0070521,0.43434,0,0,0,0,1,2.4,3.1416,2.4,0
0.025989,0.42122,0,0,0,0,1,2.48,3.1416,2.48,0
0.061755,0.40125,0,0,0,0,1,2.56,3.1416,2.56,0
0.099175,0.37667,0,0,0,0,1,2.64,3.1416,2.64,0
0.13738,0.34843,0,0,0,0,1,2.72,3.1416,2.72,0
0.17557,0.31743,0,0,0,0,1,2.8,3.1416,2.8,0
0.21312,0.2851,0,0,0,0,1,2.88,3.1416,2.88,0
0.24937,0.25238,0,0,0,0,1,2.96,3.1416,2.96,0
0.28401,0.21997,0,0,0,0,1,3.04,3.1416,3.04,0
0.31671,0.18855,0,0,0,0,1,3.12,3.1416,3.12,0
0.34722,0.15854,0,0,0,0,1,3.2,3.1416,3.2,0
0.37524,0.13069,0,0,0,0,1,3.28,3.1416,3.28,0
0.40077,0.10486,0,0,0,0,1,3.36,3.1416,3.36,0
0.42374,0.081549,0,0,0,0,1,3.44,3.1416,3.44,0
0.44372,0.060941,0,0,0,0,1,3.52,3.1416,3.52,0
0.46091,0.043074,0,0,0,0,1,3.6,3.1416,3.6,0
0.47525,0.02822,0,0,0,0,1,3.68,3.1416,3.68,0
0.48655,0.016162,0,0,0,0,1,3.76,3.1416,3.76,0
0.49473,0.0073011,0,0,0,0,1,3.84,3.1416,3.84,0
0.50016,0.0006753,0,0,0,0,1,3.92,3.1416,3.92,0
0.50572,-0.0059702,0,0,0,0,1,4,3.1416,4,0
0.50591,-0.0090382,0,0,0,0,1,4.08,3.1416,4.08,0
0.50661,-0.0093352,0,0,0,0,1,4.16,3.1416,4.16,0
0.50433,-0.0065061,0,0,0,0,1,4.24,3.1416,4.24,0
0.49853,0.00021706,0,0,0,0,1,4.32,3.1416,4.32,0
0.48898,0.010645,0,0,0,0,1,4.4,3.1416,4.4,0
0.47567,0.024928,0,0,0,0,1,4.48,3.1416,4.48,0
0.45867,0.042843,0,0,0,0,1,4.56,3.1416,4.56,0
0.43775,0.064397,0,0,0,0,1,4.64,3.1416,4.64,0
0.41338,0.089232,0,0,0,0,1,4.72,3.1416,4.72,0
0.38572,0.11684,0,0,0,0,1,4.8,3.1416,4.8,0
0.35481,0.14732,0,0,0,0,1,4.88,3.1416,4.88,0
0.32109,0.17977,0,0,0,0,1,4.96,3.1416,4.96,0
0.28488,0.21365,0,0,0,0,1,5.04,3.1416,5.04,0
0.24663,0.24824,0,0,0,0,1,5.12,3.1416,5.12,0
0.20675,0.28274,0,0,0,0,1,5.2,3.1416,5.2,0
0.16599,0.31609,0,0,0,0,1,5.28,3.1416,5.28,0
0.12506,0.34681,0,0,0,0,1,5.36,3.1416,5.36,0
0.084852,0.3739,0,0,0,0,1,5.44,3.1416,5.44,0
0.046303,0.39636,0,0,0,0,1,5.52,3.1416,5.52,0
0.010532,0.41191,0,0,0,0,1,5.6,3.1416,5.6,0
-0.021524,0.42005,0,0,0,0,1,5.68,3.1416,5.68,0
-0.048727,0.42002,0,0,0,0,1,5.76,3.1416,5.76,0
-0.070512,0.41128,0,0,0,0,1,5.84,3.1416,5.84,0
-0.086501,0.39409,0,0,0,0,1,5.92,3.1416,5.92,0
-0.096109,0.36851,0,0,0,0,1,6,3.1416,6,0
-0.10006,0.33649,0,0,0,0,1,6.08,3.1416,6.08,0
-0.098855,0.29996,0,0,0,0,1,6.16,3.1416,6.16,0
-0.093402,0.26035,0,0,0,0,1,6.24,3.1416,6.24,0
-0.084733,0.21993,0,0,0,0,1,6.32,3.1416,6.32,0
-0.074184,0.18059,0,0,0,0,1,6.4,3.1416,6.4,0
-0.062814,0.14433,0,0,0,0,1,6.48,3.1416,6.48,0
-0.051497,0.11174,0,0,0,0,1,6.56,3.1416,6.56,0
-0.041005,0.083649,0,0,0,0,1,6.64,3.1416,6.64,0
-0.031832,0.060699,0,0,0,0,1,6.72,3.1416,6.72,0
-0.024178,0.04228,0,0,0,0,1,6.8,3.1416,6.8,0
-0.018099,0.027952,0,0,0,0,1,6.88,3.1416,6.88,0
-0.013533,0.017559,0,0,0,0,1,6.96,3.1416,6.96,0
-0.010262,0.01006,0,0,0,0,1,7.04,3.1416,7.04,0
-0.0081731,0.004967,0,0,0,0,1,7.12,3.1416,7.12,0
-0.0069918,0.001836,0,0,0,0,1,7.2,3.1416,7.2,0
-0.0065627,6.2227e-05,0,0,0,0,1,7.28,3.1416,7.28,0
-0.0067386,-0.00063701,0,0,0,0,1,7.36,3.1416,7.36,0
-0.0073783,-0.00058666,0,0,0,0,1,7.44,3.1416,7.44,0
-0.0083854,8.5027e-05,0,0,0,0,1,7.52,3.1416,7.52,0
-0.0096629,0.0011035,0,0,0,0,1,7.6,3.1416,7.6,0
-0.011153,0.0024013,0,0,0,0,1,7.68,3.1416,7.68,0
-0.01279,0.0039001,0,0,0,0,1,7.76,3.1416,7.76,0
-0.014528,0.0055012,0,0,0,0,1,7.84,3.1416,7.84,0
-0.01633,0.0071789,0,0,0,0,1,7.92,3.1416,7.92,0
-0.018164,0.008894,0,0,0,0,1,8,3.1416,8,0
