"I","p","NodeMapL2G","nodeMaterialTypes","CellMapL2G","elementMaterialTypes","vtkValidPointMask","arc_length","Points:0","Points:1","Points:2"
2.8844e-21,1.7847e-05,0,0,0,0,1,0,3.1416,0,0
-8.1941e-06,3.947e-05,0,0,0,0,1,0.08,3.1416,0.08,0
-2.5449e-05,8.0464e-05,0,0,0,0,1,0.16,3.1416,0.16,0
-5.9077e-05,0.00015545,0,0,0,0,1,0.24,3.1416,0.24,0
-0.00012128,0.00028886,0,0,0,0,1,0.32,3.1416,0.32,0
-0.0002318,0.00052023,0,0,0,0,1,0.4,3.1416,0.4,0
-0.0004216,0.00091192,0,0,0,0,1,0.48,3.1416,0.48,0
-0.00073766,0.0015594,0,0,0,0,1,0.56,3.1416,0.56,0
-0.0012488,0.0026045,0,0,0,0,1,0.64,3.1416,0.64,0
-0.0020519,0.0042507,0,0,0,0,1,0.72,3.1416,0.72,0
-0.003278,0.0067797,0,0,0,0,1,0.8,3.1416,0.8,0
-0.0050954,0.010566,0,0,0,0,1,0.88,3.1416,0.88,0
-0.0077085,0.016085,0,0,0,0,1,0.96,3.1416,0.96,0
-0.011348,0.023907,0,0,0,0,1,1.04,3.1416,1.04,0
-0.016251,0.034679,0,0,0,0,1,1.12,3.1416,1.12,0
-0.022626,0.049071,0,0,0,0,1,1.2,3.1416,1.2,0
-0.030607,0.067703,0,0,0,0,1,1.28,3.1416,1.28,0
-0.040197,0.091047,0,0,0,0,1,1.36,3.1416,1.36,0
-0.05121,0.11931,0,0,0,0,1,1.44,3.1416,1.44,0
-0.063227,0.15231,0,0,0,0,1,1.52,3.1416,1.52,0
-0.075571,0.18942,0,0,0,0,1,1.6,3.1416,1.6,0
-0.087326,0.2295,0,0,0,0,1,1.68,3.1416,1.68,0
-0.097393,0.27098,0,0,0,0,1,1.76,3.1416,1.76,0
-0.10459,0.31192,0,0,0,0,1,1.84,3.1416,1.84,0
-0.10777,0.35022,0,0,0,0,1,1.92,3.1416,1.92,0
-0.10599,0.38389,0,0,0,0,1,2,3.1416,2,0
-0.098548,0.41109,0,0,0,0,1,2.08,3.1416,2.08,0
-0.085144,0.43054,0,0,0,0,1,2.16,3.1416,2.16,0
-0.06585,0.44149,0,0,0,0,1,2.24,3.1416,2.24,0
-0.041099,0.44378,0,0,0,0,1,2.32,3.1416,2.32,0
-0.011615,0.43777,0,0,0,0,1,2.4,3.1416,2.4,0
0.021684,0.42428,0,0,0,0,1,2.48,3.1416,2.48,0
0.057793,0.40442,0,0,0,0,1,2.56,3.1416,2.56,0
0.095704,0.37946,0,0,0,0,1,2.64,3.1416,2.64,0
0.13448,0.3507,0,0,0,0,1,2.72,3.1416,2.72,0
0.17331,0.31938,0,0,0,0,1,2.8,3.1416,2.8,0
0.2115,0.28664,0,0,0,0,1,2.88,3.1416,2.88,0
0.2485,0.25343,0,0,0,0,1,2.96,3.1416,2.96,0
0.28387,0.22057,0,0,0,0,1,3.04,3.1416,3.04,0
0.31729,0.18872,0,0,0,0,1,3.12,3.1416,3.12,0
0.3485,0.1584,0,0,0,0,1,3.2,3.1416,3.2,0
0.3773,0.13004,0,0,0,0,1,3.28,3.1416,3.28,0
0.40352,0.10397,0,0,0,0,1,3.36,3.1416,3.36,0
0.42702,0.080435,0,0,0,0,1,3.44,3.1416,3.44,0
0.44768,0.059662,0,0,0,0,1,3.52,3.1416,3.52,0
0.4654,0.041814,0,0,0,0,1,3.6,3.1416,3.6,0
0.48005,0.027033,0,0,0,0,1,3.68,3.1416,3.68,0
0.49156,0.015435,0,0,0,0,1,3.76,3.1416,3.76,0
0.4999,0.0071442,0,0,0,0,1,3.84,3.1416,3.84,0
0.50458,0.0023526,0,0,0,0,1,3.92,3.1416,3.92,0
0.51357,-0.0048863,0,0,0,0,1,4,3.1416,4,0
0.5065,0.0012686,0,0,0,0,1,4.08,3.1416,4.08,0
0.50169,0.0064371,0,0,0,0,1,4.16,3.1416,4.16,0
0.49338,0.014602,0,0,0,0,1,4.24,3.1416,4.24,0
0.48184,0.026171,0,0,0,0,1,4.32,3.1416,4.32,0
0.46716,0.040906,0,0,0,0,1,4.4,3.1416,4.4,0
0.44945,0.058684,0,0,0,0,1,4.48,3.1416,4.48,0
0.4288,0.079368,0,0,0,0,1,4.56,3.1416,4.56,0
0.40533,0.1028,0,0,0,0,1,4.64,3.1416,4.64,0
0.37915,0.12877,0,0,0,0,1,4.72,3.1416,4.72,0
0.35039,0.15703,0,0,0,0,1,4.8,3.1416,4.8,0
0.3192,0.18728,0,0,0,0,1,4.88,3.1416,4.88,0
0.28575,0.21911,0,0,0,0,1,4.96,3.1416,4.96,0
0.25031,0.252,0,0,0,0,1,5.04,3.1416,5.04,0
0.21317,0.28532,0,0,0,0,1,5.12,3.1416,5.12,0
0.17478,0.31824,0,0,0,0,1,5.2,3.1416,5.2,0
0.13568,0.34981,0,0,0,0,1,5.28,3.1416,5.28,0
0.096567,0.37889,0,0,0,0,1,5.36,3.1416,5.36,0
0.05828,0.40421,0,0,0,0,1,5.44,3.1416,5.44,0
0.02177,0.42446,0,0,0,0,1,5.52,3.1416,5.52,0
-0.011936,0.43833,0,0,0,0,1,5.6,3.1416,5.6,0
-0.041809,0.4447,0,0,0,0,1,5.68,3.1416,5.68,0
-0.066915,0.44274,0,0,0,0,1,5.76,3.1416,5.76,0
-0.086512,0.43204,0,0,0,0,1,5.84,3.1416,5.84,0
-0.10016,0.41278,0,0,0,0,1,5.92,3.1416,5.92,0
-0.10777,0.38568,0,0,0,0,1,6,3.1416,6,0
-0.10965,0.35208,0,0,0,0,1,6.08,3.1416,6.08,0
-0.1065,0.31376,0,0,0,0,1,6.16,3.1416,6.16,0
-0.099278,0.27275,0,0,0,0,1,6.24,3.1416,6.24,0
-0.089141,0.23117,0,0,0,0,1,6.32,3.1416,6.32,0
-0.077275,0.19093,0,0,0,0,1,6.4,3.1416,6.4,0
-0.064786,0.15365,0,0,0,0,1,6.48,3.1416,6.48,0
-0.052589,0.12044,0,0,0,0,1,6.56,3.1416,6.56,0
-0.041362,0.091934,0,0,0,0,1,6.64,3.1416,6.64,0
-0.031526,0.06832,0,0,0,0,1,6.72,3.1416,6.72,0
-0.023276,0.049399,0,0,0,0,1,6.8,3.1416,6.8,0
-0.016626,0.034721,0,0,0,0,1,6.88,3.1416,6.88,0
-0.011464,0.023686,0,0,0,0,1,6.96,3.1416,6.96,0
-0.0076008,0.015643,0,0,0,0,1,7.04,3.1416,7.04,0
-0.0048136,0.0099568,0,0,0,0,1,7.12,3.1416,7.12,0
-0.0028745,0.0060544,0,0,0,0,1,7.2,3.1416,7.2,0
-0.0015725,0.0034514,0,0,0,0,1,7.28,3.1416,7.28,0
-0.00072653,0.0017586,0,0,0,0,1,7.36,3.1416,7.36,0
-0.00019076,0.00067998,0,0,0,0,1,7.44,3.1416,7.44,0
0.00014429,8.9069e-07,0,0,0,0,1,7.52,3.1416,7.52,0
0.00035519,-0.00042586,0,0,0,0,1,7.6,3.1416,7.6,0
0.00049126,-0.00069568,0,0,0,0,1,7.68,3.1416,7.68,0
0.00058093,-0.00086652,0,0,0,0,1,7.76,3.1416,7.76,0
0.00063813,-0.00097085,0,0,0,0,1,7.84,3.1416,7.84,0
0.00066762,-0.0010252,0,0,0,0,1,7.92,3.1416,7.92,0
0.00066925,-0.001036,0,0,0,0,1,8,3.1416,8,0
